[
    {
        "name": "Genesis Raiment",
        "phase": 5,
        "raid": true,
        "tailoring": false,
        "spellDamage": 40,
        "itemNames": [
            "Genesis Boots",
            "Genesis Helm",
            "Genesis Shoulderpads",
            "Genesis Trousers",
            "Genesis Vest"
        ]
    },
    {
        "name": "Bloodvine Garb",
        "phase": 4,
        "raid": false,
        "tailoring": false,
        "itemNames": [
            "Bloodvine Vest",
            "Bloodvine Leggings",
            "Bloodvine Boots"
        ]
    },
    {
        "name": "Zanzil's Concentration",
        "phase": 4,
        "raid": true,
        "tailoring": false,
        "spellHit": 1,
        "spellDamage": 6,
        "itemNames": [
            "Zanzil's Band",
            "Zanzil's Seal"
        ]
    }
]
